<?xml version="1.0" encoding="UTF-8" standalone="no"?>
<!-- Created with Inkscape (http://www.inkscape.org/) -->

<svg
   xmlns:dc="http://purl.org/dc/elements/1.1/"
   xmlns:cc="http://creativecommons.org/ns#"
   xmlns:rdf="http://www.w3.org/1999/02/22-rdf-syntax-ns#"
   xmlns:svg="http://www.w3.org/2000/svg"
   xmlns="http://www.w3.org/2000/svg"
   xmlns:sodipodi="http://sodipodi.sourceforge.net/DTD/sodipodi-0.dtd"
   xmlns:inkscape="http://www.inkscape.org/namespaces/inkscape"
   width="210mm"
   height="297mm"
   viewBox="0 0 744.09448819 1052.3622047"
   id="svg2"
   version="1.1"
   inkscape:version="0.91 r13725"
   sodipodi:docname="SiMAP logo bw.svg"
   inkscape:export-filename="C:\Dropbox\ARS\2015-02-12 ARS Logo\SiMAP logo bw.png"
   inkscape:export-xdpi="90"
   inkscape:export-ydpi="90">
  <defs
     id="defs4">
    <filter
       style="color-interpolation-filters:sRGB;"
       inkscape:label="Drop Shadow"
       id="filter5654">
      <feFlood
         flood-opacity="0.498039"
         flood-color="rgb(0,0,0)"
         result="flood"
         id="feFlood5656" />
      <feComposite
         in="flood"
         in2="SourceGraphic"
         operator="in"
         result="composite1"
         id="feComposite5658" />
      <feGaussianBlur
         in="composite1"
         stdDeviation="7"
         result="blur"
         id="feGaussianBlur5660" />
      <feOffset
         dx="6"
         dy="6"
         result="offset"
         id="feOffset5662" />
      <feComposite
         in="SourceGraphic"
         in2="offset"
         operator="over"
         result="composite2"
         id="feComposite5664" />
    </filter>
    <filter
       style="color-interpolation-filters:sRGB;"
       inkscape:label="Drop Shadow"
       id="filter5666">
      <feFlood
         flood-opacity="0.498039"
         flood-color="rgb(0,0,0)"
         result="flood"
         id="feFlood5668" />
      <feComposite
         in="flood"
         in2="SourceGraphic"
         operator="in"
         result="composite1"
         id="feComposite5670" />
      <feGaussianBlur
         in="composite1"
         stdDeviation="7"
         result="blur"
         id="feGaussianBlur5672" />
      <feOffset
         dx="6"
         dy="6"
         result="offset"
         id="feOffset5674" />
      <feComposite
         in="SourceGraphic"
         in2="offset"
         operator="over"
         result="composite2"
         id="feComposite5676" />
    </filter>
    <filter
       style="color-interpolation-filters:sRGB;"
       inkscape:label="Drop Shadow"
       id="filter5678">
      <feFlood
         flood-opacity="0.498039"
         flood-color="rgb(0,0,0)"
         result="flood"
         id="feFlood5680" />
      <feComposite
         in="flood"
         in2="SourceGraphic"
         operator="in"
         result="composite1"
         id="feComposite5682" />
      <feGaussianBlur
         in="composite1"
         stdDeviation="7"
         result="blur"
         id="feGaussianBlur5684" />
      <feOffset
         dx="6"
         dy="6"
         result="offset"
         id="feOffset5686" />
      <feComposite
         in="SourceGraphic"
         in2="offset"
         operator="over"
         result="composite2"
         id="feComposite5688" />
    </filter>
    <filter
       style="color-interpolation-filters:sRGB;"
       inkscape:label="Drop Shadow"
       id="filter5690">
      <feFlood
         flood-opacity="0.498039"
         flood-color="rgb(0,0,0)"
         result="flood"
         id="feFlood5692" />
      <feComposite
         in="flood"
         in2="SourceGraphic"
         operator="in"
         result="composite1"
         id="feComposite5694" />
      <feGaussianBlur
         in="composite1"
         stdDeviation="7"
         result="blur"
         id="feGaussianBlur5696" />
      <feOffset
         dx="6"
         dy="6"
         result="offset"
         id="feOffset5698" />
      <feComposite
         in="SourceGraphic"
         in2="offset"
         operator="over"
         result="composite2"
         id="feComposite5700" />
    </filter>
    <filter
       style="color-interpolation-filters:sRGB;"
       inkscape:label="Drop Shadow"
       id="filter5702">
      <feFlood
         flood-opacity="0.498039"
         flood-color="rgb(0,0,0)"
         result="flood"
         id="feFlood5704" />
      <feComposite
         in="flood"
         in2="SourceGraphic"
         operator="in"
         result="composite1"
         id="feComposite5706" />
      <feGaussianBlur
         in="composite1"
         stdDeviation="7"
         result="blur"
         id="feGaussianBlur5708" />
      <feOffset
         dx="6"
         dy="6"
         result="offset"
         id="feOffset5710" />
      <feComposite
         in="SourceGraphic"
         in2="offset"
         operator="over"
         result="composite2"
         id="feComposite5712" />
    </filter>
  </defs>
  <sodipodi:namedview
     id="base"
     pagecolor="#ffffff"
     bordercolor="#666666"
     borderopacity="1.0"
     inkscape:pageopacity="0.0"
     inkscape:pageshadow="2"
     inkscape:zoom="0.98994949"
     inkscape:cx="258.82612"
     inkscape:cy="678.90147"
     inkscape:document-units="px"
     inkscape:current-layer="layer1"
     showgrid="false"
     inkscape:window-width="1440"
     inkscape:window-height="900"
     inkscape:window-x="-8"
     inkscape:window-y="-8"
     inkscape:window-maximized="1" />
  <metadata
     id="metadata7">
    <rdf:RDF>
      <cc:Work
         rdf:about="">
        <dc:format>image/svg+xml</dc:format>
        <dc:type
           rdf:resource="http://purl.org/dc/dcmitype/StillImage" />
        <dc:title></dc:title>
      </cc:Work>
    </rdf:RDF>
  </metadata>
  <g
     inkscape:label="Ebene 1"
     inkscape:groupmode="layer"
     id="layer1">
    <path
       style="fill:#000000;fill-opacity:1;filter:url(#filter5654)"
       d="m 531.3307,634.60253 c -48.73364,-16.20776 -98.3958,-40.876 -148.01932,-73.52436 -40.02709,-26.33464 -96.84102,-68.52201 -100.71046,-74.7829 -1.28423,-2.07794 19.51591,10.91714 46.22249,28.87797 119.81978,80.58152 225.05158,116.58015 267.5735,91.5339 22.87908,-13.47625 29.75125,-26.46516 31.41303,-59.37299 1.12083,-22.19557 -0.64414,-36.31603 -7.26422,-58.11624 -4.80962,-15.83832 -11.35929,-33.85502 -14.55485,-40.03703 -3.19552,-6.18204 -4.97507,-12.07504 -3.95452,-13.09561 1.02057,-1.02055 8.97151,11.15409 17.66878,27.05476 37.06921,67.7715 47.87485,124.35621 29.41613,154.03969 -10.95011,17.60884 -37.734,31.1169 -61.16376,30.84703 -9.26546,-0.10677 -34.74748,-6.14763 -56.6268,-13.42422 z M 117.04797,252.16272 C 97.542396,217.19052 87.182986,191.7864 80.263464,161.95696 69.731643,116.55521 80.274418,86.538821 111.98896,71.631221 c 21.64666,-10.17513 38.89838,-10.74754 69.07617,-2.29195 52.25249,14.64075 102.49393,37.678339 160.13144,73.426249 31.10673,19.29302 92.18052,64.12441 115.25792,84.60544 14.08164,12.49732 12.18672,11.32619 -55.35154,-34.20946 -47.00116,-31.68913 -125.05496,-72.55598 -160.95142,-84.2698 -10.24038,-3.34166 -29.8111,-7.83895 -43.49048,-9.993989 -57.71573,-9.09243 -90.08747,15.708879 -90.10123,69.030239 -0.006,24.51977 11.46005,72.95456 22.17775,93.68029 3.34121,6.4612 5.21636,12.6062 4.167,13.65557 -1.04937,1.04937 -8.18484,-9.34613 -15.8566,-23.10109 z"
       id="path3347"
       inkscape:connector-curvature="0" />
    <path
       inkscape:connector-curvature="0"
       id="path3405"
       d="M 125.73139,265.38165 C 115.97501,250.70701 94.794575,207.25147 89.075466,190.17532 71.555977,137.86553 73.236823,105.80454 94.621193,84.394411 c 7.088217,-7.09676 24.005167,-15.98752 35.348397,-18.57747 16.73926,-3.82199 37.41765,-0.71072 72.86609,10.96344 64.55824,21.26083 129.13491,56.768399 202.80846,111.514519 25.76633,19.14671 50.12153,38.54433 49.35625,39.30962 -0.30689,0.30689 -15.44371,-9.37615 -33.63736,-21.51786 -48.67039,-32.48068 -78.82857,-50.2485 -121.63784,-71.66342 -38.54763,-19.2831 -58.99803,-27.08042 -85.64217,-32.65363 -35.98377,-7.526799 -55.75398,-6.922029 -75.14645,2.2987 -25.50612,12.12764 -36.9497,42.1043 -31.37375,82.18403 3.74204,26.89761 11.23931,54.53116 20.27974,74.7473 2.61492,5.84748 4.55076,11.24274 4.30185,11.98947 -0.24891,0.74673 -3.13477,-2.67663 -6.41302,-7.60746 z"
       style="fill:#000000;fill-opacity:1;filter:url(#filter5702)" />
    <path
       inkscape:connector-curvature="0"
       id="path3409"
       d="m 280.01312,358.63838 0,-54.4377 10.75811,0 c 9.12132,0 10.88513,0.3221 11.59292,2.11702 0.45914,1.16436 6.54723,17.34634 13.52909,35.95996 6.98187,18.61361 13.11479,34.59431 13.62873,35.51266 1.07848,1.92714 -0.0993,4.73804 17.02139,-40.62459 l 12.4416,-32.96505 10.71773,0 10.71775,0 0,54.4377 0,54.4377 -6.6535,0 -6.6535,0 0,-48.63101 c 0,-26.74706 -0.46091,-48.11386 -1.02425,-47.48178 -0.56333,0.63209 -7.23195,17.90108 -14.81915,38.37555 l -13.7949,37.22631 -7.21243,-0.32965 -7.21243,-0.32964 -14.04381,-37.18431 c -7.7241,-20.45137 -14.41339,-37.55388 -14.86508,-38.00557 -0.45171,-0.4517 -0.82128,21.04454 -0.82128,47.76941 l 0,48.59069 -6.65349,0 -6.6535,0 0,-54.4377 z"
       style="fill:#52a112;fill-opacity:1" />
    <path
       inkscape:connector-curvature="0"
       id="path3411"
       d="m 397.9424,527.57131 c 6.13008,-1.84748 7.84161,-5.19602 7.86447,-15.38654 l 0.0179,-7.95214 -7.44394,-1.38434 c -11.36923,-2.11433 -18.03061,-5.92915 -21.53515,-12.33268 -2.56551,-4.68772 -3.06269,-7.52425 -3.65088,-20.829 -0.3745,-8.47123 -1.21552,-15.91798 -1.86894,-16.54832 -0.65341,-0.63035 -2.54897,-1.39023 -4.21234,-1.68864 -1.66337,-0.29841 -0.1416,-0.61669 3.38173,-0.7073 5.26046,-0.13528 6.91974,0.34894 9.27849,2.70769 3.14331,3.14331 3.74939,6.32116 4.86971,25.53331 0.94715,16.24238 3.85444,20.35673 15.5137,21.95481 l 5.66762,0.77683 0,-21.80549 c 0,-24.40513 -0.40404,-25.7388 -8.46808,-27.95177 -3.21529,-0.88235 -0.0135,-1.15764 13.30699,-1.14417 15.30257,0.0155 16.95299,0.20019 12.93299,1.44745 -2.53441,0.78635 -5.11187,2.2263 -5.72767,3.1999 -0.61581,0.97361 -1.12797,11.70508 -1.13816,23.84771 -0.0209,24.91599 -0.55534,23.78523 9.77824,20.68921 8.71101,-2.60988 9.79463,-4.92358 11.45997,-24.46899 0.81501,-9.56552 2.0941,-18.53586 2.8424,-19.93409 1.98208,-3.70352 5.23127,-5.03845 11.8107,-4.8524 3.26228,0.0923 4.49496,0.40348 2.80142,0.7073 -1.66338,0.29841 -3.5687,1.06635 -4.23404,1.70655 -0.66536,0.64018 -1.49763,8.07927 -1.84949,16.5313 -0.55599,13.35544 -1.03113,16.08002 -3.62918,20.81109 -3.5473,6.45967 -10.22013,10.25776 -21.51817,12.24787 l -7.48038,1.31764 0.0179,8.0364 c 0.0228,10.27504 1.72315,13.61995 7.86446,15.47081 4.24703,1.27996 2.66333,1.45259 -13.32606,1.45259 -15.9894,0 -17.5731,-0.17263 -13.32607,-1.45259 z"
       style="fill:#52a112;fill-opacity:1" />
    <text
       xml:space="preserve"
       style="font-style:normal;font-weight:normal;font-size:180px;line-height:125%;font-family:Sans;letter-spacing:0px;word-spacing:0px;fill:#000000;fill-opacity:1;stroke:none;stroke-width:1px;stroke-linecap:butt;stroke-linejoin:miter;stroke-opacity:1;"
       x="168.69548"
       y="266.46353"
       id="text3344"
       sodipodi:linespacing="125%"><tspan
         sodipodi:role="line"
         id="tspan3346"
         x="168.69548"
         y="266.46353" /></text>
    <flowRoot
       xml:space="preserve"
       id="flowRoot3350"
       style="font-style:normal;font-weight:normal;font-size:40px;line-height:125%;font-family:Sans;letter-spacing:0px;word-spacing:0px;fill:#000000;fill-opacity:1;stroke:none;stroke-width:1px;stroke-linecap:butt;stroke-linejoin:miter;stroke-opacity:1"><flowRegion
         id="flowRegion3352"><rect
           id="rect3354"
           width="227.14285"
           height="184.28572"
           x="171.42857"
           y="195.21935" /></flowRegion><flowPara
         id="flowPara3358"
         style="font-size:180px">SiMAP</flowPara></flowRoot>    <path
       style="fill:#000000;fill-opacity:1;fill-rule:evenodd;stroke:none;filter:url(#filter5678)"
       id="path1873"
       d="m 429.81953,529.52056 0,-2.2765 c 0,0 -7.11405,0.14228 -9.10599,-1.4228 -1.99193,-1.5651 -3.27245,-4.26844 -3.27245,-8.39457 0,-4.12615 0,-12.94757 0,-12.94757 0,0 18.92336,-1.99193 24.89915,-7.96774 5.97581,-5.97579 7.68317,-15.65089 7.68317,-21.62669 0,-2.9879 0.0313,-11.01872 0.0313,-15.21696 0,-2.5642 0.4531,-7.12978 3.93319,-7.12978 1.73041,0 4.43006,0.009 4.43006,0.009 l 0,-2.9879 c 0,0 -3.6993,-0.14227 -5.97579,-0.14227 -2.2765,0 -7.75431,0.35571 -10.52879,3.13017 -2.77448,2.77449 -4.55299,10.38652 -4.55299,23.47636 0,13.08984 -1.13825,16.64686 -4.41071,19.91933 -4.90921,4.90919 -15.50862,5.26439 -15.50862,5.26439 0,0 0,-33.00917 0,-37.56217 0,-4.55297 -0.14227,-6.97176 1.99193,-9.10598 2.13422,-2.1342 9.24826,-1.84964 9.24826,-1.84964 l 0,-3.27246 -34.95026,0 0,3.27246 c 0,0 7.11403,-0.28456 9.24825,1.84964 2.13422,2.13422 1.99193,4.55301 1.99193,9.10598 0,4.553 0,37.56217 0,37.56217 0,0 -10.59942,-0.3552 -15.50862,-5.26439 -3.27245,-3.27244 -4.41071,-6.82947 -4.41071,-19.91931 0,-13.08984 -1.7785,-20.70188 -4.55298,-23.47635 -2.77448,-2.77448 -8.2523,-3.13018 -10.52879,-3.13018 -2.27649,0 -5.9758,0.14228 -5.9758,0.14228 l 0,2.9879 c 0,0 2.69965,-0.009 4.43007,-0.009 3.48008,0 3.9332,4.56558 3.9332,7.12978 0,4.19823 0.0312,12.22905 0.0312,15.21695 0,5.9758 1.70738,15.65091 7.68317,21.6267 5.9758,5.97579 24.89916,7.96773 24.89916,7.96773 0,0 0,8.82141 0,12.94756 0,4.12615 -1.28053,6.82949 -3.27247,8.39458 -1.99193,1.56509 -9.10596,1.42281 -9.10596,1.42281 l 0,2.27649"
       inkscape:connector-curvature="0" />
    <text
       xml:space="preserve"
       style="font-style:normal;font-weight:normal;font-size:120.84893799px;line-height:125%;font-family:Sans;letter-spacing:0px;word-spacing:0px;fill:#000000;fill-opacity:1;stroke:none;stroke-width:1px;stroke-linecap:butt;stroke-linejoin:miter;stroke-opacity:1;filter:url(#filter5666);"
       x="454.9574"
       y="530.50867"
       id="text3370"
       sodipodi:linespacing="125%"><tspan
         sodipodi:role="line"
         id="tspan3372"
         x="454.9574"
         y="530.50867"
         style="font-style:normal;font-variant:normal;font-weight:normal;font-stretch:normal;font-family:'Times New Roman';-inkscape-font-specification:'Times New Roman, ';fill:#000000;fill-opacity:1;">AI</tspan></text>
    <text
       xml:space="preserve"
       style="font-style:normal;font-weight:normal;font-size:152.42556763px;line-height:125%;font-family:Sans;letter-spacing:0px;word-spacing:0px;fill:#000000;fill-opacity:1;stroke:none;stroke-width:1px;stroke-linecap:butt;stroke-linejoin:miter;stroke-opacity:1;filter:url(#filter5690);"
       x="125.48066"
       y="414.19244"
       id="text3374"
       sodipodi:linespacing="125%"><tspan
         sodipodi:role="line"
         id="tspan3376"
         x="125.48066"
         y="414.19244">SiMAP</tspan></text>
  </g>
</svg>
