<?xml version="1.0" encoding="UTF-8" standalone="no"?>
<!-- Created with Inkscape (http://www.inkscape.org/) -->

<svg
   xmlns:dc="http://purl.org/dc/elements/1.1/"
   xmlns:cc="http://creativecommons.org/ns#"
   xmlns:rdf="http://www.w3.org/1999/02/22-rdf-syntax-ns#"
   xmlns:svg="http://www.w3.org/2000/svg"
   xmlns="http://www.w3.org/2000/svg"
   xmlns:sodipodi="http://sodipodi.sourceforge.net/DTD/sodipodi-0.dtd"
   xmlns:inkscape="http://www.inkscape.org/namespaces/inkscape"
   width="210mm"
   height="297mm"
   viewBox="0 0 744.09448819 1052.3622047"
   id="svg2"
   version="1.1"
   inkscape:version="0.91 r13725"
   sodipodi:docname="SiMA logo bw.svg"
   inkscape:export-filename="C:\Dropbox\ARS\2015-02-12 ARS Logo\SiMA logo.png"
   inkscape:export-xdpi="90"
   inkscape:export-ydpi="90">
  <defs
     id="defs4">
    <filter
       style="color-interpolation-filters:sRGB;"
       inkscape:label="Drop Shadow"
       id="filter5654">
      <feFlood
         flood-opacity="0.498039"
         flood-color="rgb(0,0,0)"
         result="flood"
         id="feFlood5656" />
      <feComposite
         in="flood"
         in2="SourceGraphic"
         operator="in"
         result="composite1"
         id="feComposite5658" />
      <feGaussianBlur
         in="composite1"
         stdDeviation="7"
         result="blur"
         id="feGaussianBlur5660" />
      <feOffset
         dx="6"
         dy="6"
         result="offset"
         id="feOffset5662" />
      <feComposite
         in="SourceGraphic"
         in2="offset"
         operator="over"
         result="composite2"
         id="feComposite5664" />
    </filter>
    <filter
       style="color-interpolation-filters:sRGB;"
       inkscape:label="Drop Shadow"
       id="filter5666">
      <feFlood
         flood-opacity="0.498039"
         flood-color="rgb(0,0,0)"
         result="flood"
         id="feFlood5668" />
      <feComposite
         in="flood"
         in2="SourceGraphic"
         operator="in"
         result="composite1"
         id="feComposite5670" />
      <feGaussianBlur
         in="composite1"
         stdDeviation="7"
         result="blur"
         id="feGaussianBlur5672" />
      <feOffset
         dx="6"
         dy="6"
         result="offset"
         id="feOffset5674" />
      <feComposite
         in="SourceGraphic"
         in2="offset"
         operator="over"
         result="composite2"
         id="feComposite5676" />
    </filter>
    <filter
       style="color-interpolation-filters:sRGB;"
       inkscape:label="Drop Shadow"
       id="filter5678">
      <feFlood
         flood-opacity="0.498039"
         flood-color="rgb(0,0,0)"
         result="flood"
         id="feFlood5680" />
      <feComposite
         in="flood"
         in2="SourceGraphic"
         operator="in"
         result="composite1"
         id="feComposite5682" />
      <feGaussianBlur
         in="composite1"
         stdDeviation="7"
         result="blur"
         id="feGaussianBlur5684" />
      <feOffset
         dx="6"
         dy="6"
         result="offset"
         id="feOffset5686" />
      <feComposite
         in="SourceGraphic"
         in2="offset"
         operator="over"
         result="composite2"
         id="feComposite5688" />
    </filter>
    <filter
       style="color-interpolation-filters:sRGB;"
       inkscape:label="Drop Shadow"
       id="filter5690">
      <feFlood
         flood-opacity="0.498039"
         flood-color="rgb(0,0,0)"
         result="flood"
         id="feFlood5692" />
      <feComposite
         in="flood"
         in2="SourceGraphic"
         operator="in"
         result="composite1"
         id="feComposite5694" />
      <feGaussianBlur
         in="composite1"
         stdDeviation="7"
         result="blur"
         id="feGaussianBlur5696" />
      <feOffset
         dx="6"
         dy="6"
         result="offset"
         id="feOffset5698" />
      <feComposite
         in="SourceGraphic"
         in2="offset"
         operator="over"
         result="composite2"
         id="feComposite5700" />
    </filter>
    <filter
       style="color-interpolation-filters:sRGB;"
       inkscape:label="Drop Shadow"
       id="filter5702">
      <feFlood
         flood-opacity="0.498039"
         flood-color="rgb(0,0,0)"
         result="flood"
         id="feFlood5704" />
      <feComposite
         in="flood"
         in2="SourceGraphic"
         operator="in"
         result="composite1"
         id="feComposite5706" />
      <feGaussianBlur
         in="composite1"
         stdDeviation="7"
         result="blur"
         id="feGaussianBlur5708" />
      <feOffset
         dx="6"
         dy="6"
         result="offset"
         id="feOffset5710" />
      <feComposite
         in="SourceGraphic"
         in2="offset"
         operator="over"
         result="composite2"
         id="feComposite5712" />
    </filter>
  </defs>
  <sodipodi:namedview
     id="base"
     pagecolor="#ffffff"
     bordercolor="#666666"
     borderopacity="1.0"
     inkscape:pageopacity="0.0"
     inkscape:pageshadow="2"
     inkscape:zoom="0.98994949"
     inkscape:cx="425.66626"
     inkscape:cy="656.10555"
     inkscape:document-units="px"
     inkscape:current-layer="layer1"
     showgrid="false"
     inkscape:window-width="1920"
     inkscape:window-height="1138"
     inkscape:window-x="1912"
     inkscape:window-y="-8"
     inkscape:window-maximized="1" />
  <metadata
     id="metadata7">
    <rdf:RDF>
      <cc:Work
         rdf:about="">
        <dc:format>image/svg+xml</dc:format>
        <dc:type
           rdf:resource="http://purl.org/dc/dcmitype/StillImage" />
        <dc:title></dc:title>
      </cc:Work>
    </rdf:RDF>
  </metadata>
  <g
     inkscape:label="Ebene 1"
     inkscape:groupmode="layer"
     id="layer1">
    <path
       style="fill:#000000;fill-opacity:1;filter:url(#filter5654)"
       d="m 531.3307,634.60253 c -48.73364,-16.20776 -98.3958,-40.876 -148.01932,-73.52436 -40.02709,-26.33464 -96.84102,-68.52201 -100.71046,-74.7829 -1.28423,-2.07794 19.51591,10.91714 46.22249,28.87797 119.81978,80.58152 225.05158,116.58015 267.5735,91.5339 22.87908,-13.47625 29.75125,-26.46516 31.41303,-59.37299 1.12083,-22.19557 -0.64414,-36.31603 -7.26422,-58.11624 -4.80962,-15.83832 -11.35929,-33.85502 -14.55485,-40.03703 -3.19552,-6.18204 -4.97507,-12.07504 -3.95452,-13.09561 1.02057,-1.02055 8.97151,11.15409 17.66878,27.05476 37.06921,67.7715 47.87485,124.35621 29.41613,154.03969 -10.95011,17.60884 -37.734,31.1169 -61.16376,30.84703 -9.26546,-0.10677 -34.74748,-6.14763 -56.6268,-13.42422 z M 117.04797,252.16272 C 97.542396,217.19052 87.182986,191.7864 80.263464,161.95696 69.731643,116.55521 80.274418,86.538821 111.98896,71.631221 c 21.64666,-10.17513 38.89838,-10.74754 69.07617,-2.29195 52.25249,14.64075 102.49393,37.678339 160.13144,73.426249 31.10673,19.29302 92.18052,64.12441 115.25792,84.60544 14.08164,12.49732 12.18672,11.32619 -55.35154,-34.20946 -47.00116,-31.68913 -125.05496,-72.55598 -160.95142,-84.2698 -10.24038,-3.34166 -29.8111,-7.83895 -43.49048,-9.993989 -57.71573,-9.09243 -90.08747,15.708879 -90.10123,69.030239 -0.006,24.51977 11.46005,72.95456 22.17775,93.68029 3.34121,6.4612 5.21636,12.6062 4.167,13.65557 -1.04937,1.04937 -8.18484,-9.34613 -15.8566,-23.10109 z"
       id="path3347"
       inkscape:connector-curvature="0" />
    <text
       xml:space="preserve"
       style="font-style:normal;font-weight:normal;font-size:180px;line-height:125%;font-family:Sans;letter-spacing:0px;word-spacing:0px;fill:#000000;fill-opacity:1;stroke:none;stroke-width:1px;stroke-linecap:butt;stroke-linejoin:miter;stroke-opacity:1;"
       x="168.69548"
       y="266.46353"
       id="text3344"
       sodipodi:linespacing="125%"><tspan
         sodipodi:role="line"
         id="tspan3346"
         x="168.69548"
         y="266.46353" /></text>
    <flowRoot
       xml:space="preserve"
       id="flowRoot3350"
       style="font-style:normal;font-weight:normal;font-size:40px;line-height:125%;font-family:Sans;letter-spacing:0px;word-spacing:0px;fill:#000000;fill-opacity:1;stroke:none;stroke-width:1px;stroke-linecap:butt;stroke-linejoin:miter;stroke-opacity:1"><flowRegion
         id="flowRegion3352"><rect
           id="rect3354"
           width="227.14285"
           height="184.28572"
           x="171.42857"
           y="195.21935" /></flowRegion><flowPara
         id="flowPara3358"
         style="font-size:180px">SiMAP</flowPara></flowRoot>    <path
       style="fill:#000000;fill-opacity:1;fill-rule:evenodd;stroke:none;filter:url(#filter5678)"
       id="path1873"
       d="m 429.81953,529.52056 0,-2.2765 c 0,0 -7.11405,0.14228 -9.10599,-1.4228 -1.99193,-1.5651 -3.27245,-4.26844 -3.27245,-8.39457 0,-4.12615 0,-12.94757 0,-12.94757 0,0 18.92336,-1.99193 24.89915,-7.96774 5.97581,-5.97579 7.68317,-15.65089 7.68317,-21.62669 0,-2.9879 0.0313,-11.01872 0.0313,-15.21696 0,-2.5642 0.4531,-7.12978 3.93319,-7.12978 1.73041,0 4.43006,0.009 4.43006,0.009 l 0,-2.9879 c 0,0 -3.6993,-0.14227 -5.97579,-0.14227 -2.2765,0 -7.75431,0.35571 -10.52879,3.13017 -2.77448,2.77449 -4.55299,10.38652 -4.55299,23.47636 0,13.08984 -1.13825,16.64686 -4.41071,19.91933 -4.90921,4.90919 -15.50862,5.26439 -15.50862,5.26439 0,0 0,-33.00917 0,-37.56217 0,-4.55297 -0.14227,-6.97176 1.99193,-9.10598 2.13422,-2.1342 9.24826,-1.84964 9.24826,-1.84964 l 0,-3.27246 -34.95026,0 0,3.27246 c 0,0 7.11403,-0.28456 9.24825,1.84964 2.13422,2.13422 1.99193,4.55301 1.99193,9.10598 0,4.553 0,37.56217 0,37.56217 0,0 -10.59942,-0.3552 -15.50862,-5.26439 -3.27245,-3.27244 -4.41071,-6.82947 -4.41071,-19.91931 0,-13.08984 -1.7785,-20.70188 -4.55298,-23.47635 -2.77448,-2.77448 -8.2523,-3.13018 -10.52879,-3.13018 -2.27649,0 -5.9758,0.14228 -5.9758,0.14228 l 0,2.9879 c 0,0 2.69965,-0.009 4.43007,-0.009 3.48008,0 3.9332,4.56558 3.9332,7.12978 0,4.19823 0.0312,12.22905 0.0312,15.21695 0,5.9758 1.70738,15.65091 7.68317,21.6267 5.9758,5.97579 24.89916,7.96773 24.89916,7.96773 0,0 0,8.82141 0,12.94756 0,4.12615 -1.28053,6.82949 -3.27247,8.39458 -1.99193,1.56509 -9.10596,1.42281 -9.10596,1.42281 l 0,2.27649"
       inkscape:connector-curvature="0"
       transform="matrix(0.66058558,0,0,0.66058558,190.81517,202.03311)" />
    <text
       xml:space="preserve"
       style="font-style:normal;font-weight:normal;font-size:120.84893799px;line-height:125%;font-family:Sans;letter-spacing:0px;word-spacing:0px;fill:#000000;fill-opacity:1;stroke:none;stroke-width:1px;stroke-linecap:butt;stroke-linejoin:miter;stroke-opacity:1;filter:url(#filter5666);"
       x="454.9574"
       y="530.50867"
       id="text3370"
       sodipodi:linespacing="125%"
       transform="matrix(0.66058558,0,0,0.66058558,190.81517,202.03311)"><tspan
         sodipodi:role="line"
         id="tspan3372"
         x="454.9574"
         y="530.50867"
         style="font-style:normal;font-variant:normal;font-weight:normal;font-stretch:normal;font-family:'Times New Roman';-inkscape-font-specification:'Times New Roman, ';fill:#000000;fill-opacity:1;">AI</tspan></text>
    <text
       xml:space="preserve"
       style="font-style:normal;font-weight:normal;font-size:152.42556763px;line-height:125%;font-family:Sans;letter-spacing:0px;word-spacing:0px;fill:#000000;fill-opacity:1;stroke:none;stroke-width:1px;stroke-linecap:butt;stroke-linejoin:miter;stroke-opacity:1;filter:url(#filter5690);"
       x="178.97812"
       y="408.13153"
       id="text3374"
       sodipodi:linespacing="125%"><tspan
         sodipodi:role="line"
         id="tspan3376"
         x="178.97812"
         y="408.13153">SiMA</tspan></text>
  </g>
</svg>
